{
  "project_info": {
    "project_number": "629358129030",
    "firebase_url": "https://vjdapp-1e112-default-rtdb.firebaseio.com",
    "project_id": "vjdapp-1e112",
    "storage_bucket": "vjdapp-1e112.appspot.com"
  },
  "client": [
    {
      "client_info": {
        "mobilesdk_app_id": "1:629358129030:android:18a7cece0cf8c722930607",
        "android_client_info": {
          "package_name": "com.vjd_new"
        }
      },
      "oauth_client": [
        {
          "client_id": "629358129030-hlcuvlj797evfqv92qo5c29i44dp4ktp.apps.googleusercontent.com",
          "client_type": 3
        }
      ],
      "api_key": [
        {
          "current_key": "AIzaSyAl6RTKd471TbuydSnjcA8yYld8VBoCL-U"
        }
      ],
      "services": {
        "appinvite_service": {
          "other_platform_oauth_client": [
            {
              "client_id": "629358129030-hlcuvlj797evfqv92qo5c29i44dp4ktp.apps.googleusercontent.com",
              "client_type": 3
            },
            {
              "client_id": "629358129030-3ln5jqrm6ahjob9j5pq4su4na63jlua5.apps.googleusercontent.com",
              "client_type": 2,
              "ios_info": {
                "bundle_id": "org.reactjs.native.example.vjdIos"
              }
            }
          ]
        }
      }
    }
  ],
  "configuration_version": "1"
}